"label","points",,
"Não-Água",4244,3508,
,4243,3507,
,4245,3509,
,4244,3509,
,4245,3508,
,4246,3508,
,4244,3510,
,4246,3510,
,4164,3828,
,4163,3827,
,4165,3829,
,4164,3829,
,4165,3828,
,4166,3828,
,4164,3830,
,4166,3830,
,3604,4611,
,3603,4610,
,3605,4612,
,3604,4612,
,3605,4611,
,3606,4611,
,3604,4613,
,3606,4613,
,4339,2885,
,4338,2884,
,4340,2886,
,4339,2886,
,4340,2885,
,4341,2885,
,4339,2887,
,4341,2887,
,4755,3700,
,4754,3699,
,4756,3701,
,4755,3701,
,4756,3700,
,4757,3700,
,4755,3702,
,4757,3702,
,5186,3253,
,5185,3252,
,5187,3254,
,5186,3254,
,5187,3253,
,5188,3253,
,5186,3255,
,5188,3255,
,6033,4036,
,6032,4035,
,6034,4037,
,6033,4037,
,6034,4036,
,6035,4036,
,6033,4038,
,6035,4038,
,6273,3620,
,6272,3619,
,6274,3621,
,6273,3621,
,6274,3620,
,6275,3620,
,6273,3622,
,6275,3622,
,6449,2789,
,6448,2788,
,6450,2790,
,6449,2790,
,6450,2789,
,6451,2789,
,6449,2791,
,6451,2791,
,5123,2917,
,5122,2916,
,5124,2918,
,5123,2918,
,5124,2917,
,5125,2917,
,5123,2919,
,5125,2919,
,3652,4835,
,3651,4834,
,3653,4836,
,3652,4836,
,3653,4835,
,3654,4835,
,3652,4837,
,3654,4837,
,4196,3301,
,4195,3300,
,4197,3302,
,4196,3302,
,4197,3301,
,4198,3301,
,4196,3303,
,4198,3303,
,2965,3093,
,2964,3092,
,2966,3094,
,2965,3094,
,2966,3093,
,2967,3093,
,2965,3095,
,2967,3095,
,2997,2629,
,2996,2628,
,2998,2630,
,2997,2630,
,2998,2629,
,2999,2629,
,2997,2631,
,2999,2631,
,2438,3540,
,2437,3539,
,2439,3541,
,2438,3541,
,2439,3540,
,2440,3540,
,2438,3542,
,2440,3542,
,2070,3524,
,2069,3523,
,2071,3525,
,2070,3525,
,2071,3524,
,2072,3524,
,2070,3526,
,2072,3526,
,1655,3844,
,1654,3843,
,1656,3845,
,1655,3845,
,1656,3844,
,1657,3844,
,1655,3846,
,1657,3846,
,1687,3221,
,1686,3220,
,1688,3222,
,1687,3222,
,1688,3221,
,1689,3221,
,1687,3223,
,1689,3223,
,2022,2629,
,2021,2628,
,2023,2630,
,2022,2630,
,2023,2629,
,2024,2629,
,2022,2631,
,2024,2631,
,2917,1750,
,2916,1749,
,2918,1751,
,2917,1751,
,2918,1750,
,2919,1750,
,2917,1752,
,2919,1752,
,2981,1575,
,2980,1574,
,2982,1576,
,2981,1576,
,2982,1575,
,2983,1575,
,2981,1577,
,2983,1577,
,3285,1367,
,3284,1366,
,3286,1368,
,3285,1368,
,3286,1367,
,3287,1367,
,3285,1369,
,3287,1369,
,3492,1782,
,3491,1781,
,3493,1783,
,3492,1783,
,3493,1782,
,3494,1782,
,3492,1784,
,3494,1784,
,3908,1319,
,3907,1318,
,3909,1320,
,3908,1320,
,3909,1319,
,3910,1319,
,3908,1321,
,3910,1321,
,5043,1047,
,5042,1046,
,5044,1048,
,5043,1048,
,5044,1047,
,5045,1047,
,5043,1049,
,5045,1049,
,4963,1942,
,4962,1941,
,4964,1943,
,4963,1943,
,4964,1942,
,4965,1942,
,4963,1944,
,4965,1944,
,5234,2454,
,5233,2453,
,5235,2455,
,5234,2455,
,5235,2454,
,5236,2454,
,5234,2456,
,5236,2456,
,5650,1734,
,5649,1733,
,5651,1735,
,5650,1735,
,5651,1734,
,5652,1734,
,5650,1736,
,5652,1736,
,6033,2725,
,6032,2724,
,6034,2726,
,6033,2726,
,6034,2725,
,6035,2725,
,6033,2727,
,6035,2727,
,6577,3109,
,6576,3108,
,6578,3110,
,6577,3110,
,6578,3109,
,6579,3109,
,6577,3111,
,6579,3111,
,6801,2869,
,6800,2868,
,6802,2870,
,6801,2870,
,6802,2869,
,6803,2869,
,6801,2871,
,6803,2871,
,6097,3508,
,6096,3507,
,6098,3509,
,6097,3509,
,6098,3508,
,6099,3508,
,6097,3510,
,6099,3510,
,5330,4691,
,5329,4690,
,5331,4692,
,5330,4692,
,5331,4691,
,5332,4691,
,5330,4693,
,5332,4693,
,4931,3956,
,4930,3955,
,4932,3957,
,4931,3957,
,4932,3956,
,4933,3956,
,4931,3958,
,4933,3958,
,4755,4068,
,4754,4067,
,4756,4069,
,4755,4069,
,4756,4068,
,4757,4068,
,4755,4070,
,4757,4070,
,4068,4307,
,4067,4306,
,4069,4308,
,4068,4308,
,4069,4307,
,4070,4307,
,4068,4309,
,4070,4309,
,4611,4068,
,4610,4067,
,4612,4069,
,4611,4069,
,4612,4068,
,4613,4068,
,4611,4070,
,4613,4070,
,4180,4387,
,4179,4386,
,4181,4388,
,4180,4388,
,4181,4387,
,4182,4387,
,4180,4389,
,4182,4389,
,3476,5075,
,3475,5074,
,3477,5076,
,3476,5076,
,3477,5075,
,3478,5075,
,3476,5077,
,3478,5077,
,3221,5282,
,3220,5281,
,3222,5283,
,3221,5283,
,3222,5282,
,3223,5282,
,3221,5284,
,3223,5284,
,3972,4212,
,3971,4211,
,3973,4213,
,3972,4213,
,3973,4212,
,3974,4212,
,3972,4214,
,3974,4214,
,4403,3524,
,4402,3523,
,4404,3525,
,4403,3525,
,4404,3524,
,4405,3524,
,4403,3526,
,4405,3526,
,3828,4483,
,3827,4482,
,3829,4484,
,3828,4484,
,3829,4483,
,3830,4483,
,3828,4485,
,3830,4485,
,3445,4979,
,3444,4978,
,3446,4980,
,3445,4980,
,3446,4979,
,3447,4979,
,3445,4981,
,3447,4981,
,3269,5810,
,3268,5809,
,3270,5811,
,3269,5811,
,3270,5810,
,3271,5810,
,3269,5812,
,3271,5812,
,2518,4707,
,2517,4706,
,2519,4708,
,2518,4708,
,2519,4707,
,2520,4707,
,2518,4709,
,2520,4709,
,2342,5506,
,2341,5505,
,2343,5507,
,2342,5507,
,2343,5506,
,2344,5506,
,2342,5508,
,2344,5508,
,2198,6209,
,2197,6208,
,2199,6210,
,2198,6210,
,2199,6209,
,2200,6209,
,2198,6211,
,2200,6211,
,2198,5330,
,2197,5329,
,2199,5331,
,2198,5331,
,2199,5330,
,2200,5330,
,2198,5332,
,2200,5332,
,1846,3652,
,1845,3651,
,1847,3653,
,1846,3653,
,1847,3652,
,1848,3652,
,1846,3654,
,1848,3654,
,2613,3572,
,2612,3571,
,2614,3573,
,2613,3573,
,2614,3572,
,2615,3572,
,2613,3574,
,2615,3574,
,3429,3253,
,3428,3252,
,3430,3254,
,3429,3254,
,3430,3253,
,3431,3253,
,3429,3255,
,3431,3255,
,4419,3572,
,4418,3571,
,4420,3573,
,4419,3573,
,4420,3572,
,4421,3572,
,4419,3574,
,4421,3574,
,4851,3652,
,4850,3651,
,4852,3653,
,4851,3653,
,4852,3652,
,4853,3652,
,4851,3654,
,4853,3654,
,5362,2454,
,5361,2453,
,5363,2455,
,5362,2455,
,5363,2454,
,5364,2454,
,5362,2456,
,5364,2456,
,4675,4020,
,4674,4019,
,4676,4021,
,4675,4021,
,4676,4020,
,4677,4020,
,4675,4022,
,4677,4022,
,5282,4196,
,5281,4195,
,5283,4197,
,5282,4197,
,5283,4196,
,5284,4196,
,5282,4198,
,5284,4198,
,5826,4467,
,5825,4466,
,5827,4468,
,5826,4468,
,5827,4467,
,5828,4467,
,5826,4469,
,5828,4469,
,5650,3620,
,5649,3619,
,5651,3621,
,5650,3621,
,5651,3620,
,5652,3620,
,5650,3622,
,5652,3622,
,6289,4004,
,6288,4003,
,6290,4005,
,6289,4005,
,6290,4004,
,6291,4004,
,6289,4006,
,6291,4006,
,6737,4212,
,6736,4211,
,6738,4213,
,6737,4213,
,6738,4212,
,6739,4212,
,6737,4214,
,6739,4214,
,6960,4435,
,6959,4434,
,6961,4436,
,6960,4436,
,6961,4435,
,6962,4435,
,6960,4437,
,6962,4437,
,7136,4451,
,7135,4450,
,7137,4452,
,7136,4452,
,7137,4451,
,7138,4451,
,7136,4453,
,7138,4453,
,7216,4595,
,7215,4594,
,7217,4596,
,7216,4596,
,7217,4595,
,7218,4595,
,7216,4597,
,7218,4597,
,7248,6113,
,7247,6112,
,7249,6114,
,7248,6114,
,7249,6113,
,7250,6113,
,7248,6115,
,7250,6115,
,7520,6065,
,7519,6064,
,7521,6066,
,7520,6066,
,7521,6065,
,7522,6065,
,7520,6067,
,7522,6067,
,7296,5826,
,7295,5825,
,7297,5827,
,7296,5827,
,7297,5826,
,7298,5826,
,7296,5828,
,7298,5828,
,7168,5985,
,7167,5984,
,7169,5986,
,7168,5986,
,7169,5985,
,7170,5985,
,7168,5987,
,7170,5987,
,6737,6273,
,6736,6272,
,6738,6274,
,6737,6274,
,6738,6273,
,6739,6273,
,6737,6275,
,6739,6275,
,6401,6209,
,6400,6208,
,6402,6210,
,6401,6210,
,6402,6209,
,6403,6209,
,6401,6211,
,6403,6211,
,5986,6401,
,5985,6400,
,5987,6402,
,5986,6402,
,5987,6401,
,5988,6401,
,5986,6403,
,5988,6403,
,1399,7472,
,1398,7471,
,1400,7473,
,1399,7473,
,1400,7472,
,1401,7472,
,1399,7474,
,1401,7474,
,1447,7344,
,1446,7343,
,1448,7345,
,1447,7345,
,1448,7344,
,1449,7344,
,1447,7346,
,1449,7346,
,2006,5682,
,2005,5681,
,2007,5683,
,2006,5683,
,2007,5682,
,2008,5682,
,2006,5684,
,2008,5684,
,2278,5985,
,2277,5984,
,2279,5986,
,2278,5986,
,2279,5985,
,2280,5985,
,2278,5987,
,2280,5987,
,2118,4931,
,2117,4930,
,2119,4932,
,2118,4932,
,2119,4931,
,2120,4931,
,2118,4933,
,2120,4933,
,776,1862,
,775,1861,
,777,1863,
,776,1863,
,777,1862,
,778,1862,
,776,1864,
,778,1864,
,792,2070,
,791,2069,
,793,2071,
,792,2071,
,793,2070,
,794,2070,
,792,2072,
,794,2072,
,840,1830,
,839,1829,
,841,1831,
,840,1831,
,841,1830,
,842,1830,
,840,1832,
,842,1832,
,664,1862,
,663,1861,
,665,1863,
,664,1863,
,665,1862,
,666,1862,
,664,1864,
,666,1864,
,552,1926,
,551,1925,
,553,1927,
,552,1927,
,553,1926,
,554,1926,
,552,1928,
,554,1928,
,312,2198,
,311,2197,
,313,2199,
,312,2199,
,313,2198,
,314,2198,
,312,2200,
,314,2200,
,488,1639,
,487,1638,
,489,1640,
,488,1640,
,489,1639,
,490,1639,
,488,1641,
,490,1641,
,424,1447,
,423,1446,
,425,1448,
,424,1448,
,425,1447,
,426,1447,
,424,1449,
,426,1449,
,728,1287,
,727,1286,
,729,1288,
,728,1288,
,729,1287,
,730,1287,
,728,1289,
,730,1289,
,1079,1287,
,1078,1286,
,1080,1288,
,1079,1288,
,1080,1287,
,1081,1287,
,1079,1289,
,1081,1289,
,1399,1287,
,1398,1286,
,1400,1288,
,1399,1288,
,1400,1287,
,1401,1287,
,1399,1289,
,1401,1289,
,1862,1271,
,1861,1270,
,1863,1272,
,1862,1272,
,1863,1271,
,1864,1271,
,1862,1273,
,1864,1273,
,3445,2869,
,3444,2868,
,3446,2870,
,3445,2870,
,3446,2869,
,3447,2869,
,3445,2871,
,3447,2871,
,4723,1942,
,4722,1941,
,4724,1943,
,4723,1943,
,4724,1942,
,4725,1942,
,4723,1944,
,4725,1944,
,4419,3317,
,4418,3316,
,4420,3318,
,4419,3318,
,4420,3317,
,4421,3317,
,4419,3319,
,4421,3319,
,3780,4499,
,3779,4498,
,3781,4500,
,3780,4500,
,3781,4499,
,3782,4499,
,3780,4501,
,3782,4501,
,3540,5458,
,3539,5457,
,3541,5459,
,3540,5459,
,3541,5458,
,3542,5458,
,3540,5460,
,3542,5460,
,3045,6081,
,3044,6080,
,3046,6082,
,3045,6082,
,3046,6081,
,3047,6081,
,3045,6083,
,3047,6083,
,2901,6257,
,2900,6256,
,2902,6258,
,2901,6258,
,2902,6257,
,2903,6257,
,2901,6259,
,2903,6259,
,2070,5762,
,2069,5761,
,2071,5763,
,2070,5763,
,2071,5762,
,2072,5762,
,2070,5764,
,2072,5764,
,2294,6129,
,2293,6128,
,2295,6130,
,2294,6130,
,2295,6129,
,2296,6129,
,2294,6131,
,2296,6131,
,2134,6177,
,2133,6176,
,2135,6178,
,2134,6178,
,2135,6177,
,2136,6177,
,2134,6179,
,2136,6179,
,2374,6705,
,2373,6704,
,2375,6706,
,2374,6706,
,2375,6705,
,2376,6705,
,2374,6707,
,2376,6707,
,2773,6353,
,2772,6352,
,2774,6354,
,2773,6354,
,2774,6353,
,2775,6353,
,2773,6355,
,2775,6355,
,3173,6337,
,3172,6336,
,3174,6338,
,3173,6338,
,3174,6337,
,3175,6337,
,3173,6339,
,3175,6339,
,3269,6401,
,3268,6400,
,3270,6402,
,3269,6402,
,3270,6401,
,3271,6401,
,3269,6403,
,3271,6403,
,3700,6385,
,3699,6384,
,3701,6386,
,3700,6386,
,3701,6385,
,3702,6385,
,3700,6387,
,3702,6387,
,4403,5298,
,4402,5297,
,4404,5299,
,4403,5299,
,4404,5298,
,4405,5298,
,4403,5300,
,4405,5300,
,5186,5442,
,5185,5441,
,5187,5443,
,5186,5443,
,5187,5442,
,5188,5442,
,5186,5444,
,5188,5444,
,5970,5314,
,5969,5313,
,5971,5315,
,5970,5315,
,5971,5314,
,5972,5314,
,5970,5316,
,5972,5316,
,6593,5442,
,6592,5441,
,6594,5443,
,6593,5443,
,6594,5442,
,6595,5442,
,6593,5444,
,6595,5444,
,7520,6049,
,7519,6048,
,7521,6050,
,7520,6050,
,7521,6049,
,7522,6049,
,7520,6051,
,7522,6051,
,7136,5938,
,7135,5937,
,7137,5939,
,7136,5939,
,7137,5938,
,7138,5938,
,7136,5940,
,7138,5940,
,6817,6177,
,6816,6176,
,6818,6178,
,6817,6178,
,6818,6177,
,6819,6177,
,6817,6179,
,6819,6179,
,5059,3061,
,5058,3060,
,5060,3062,
,5059,3062,
,5060,3061,
,5061,3061,
,5059,3063,
,5061,3063,
,5202,2470,
,5201,2469,
,5203,2471,
,5202,2471,
,5203,2470,
,5204,2470,
,5202,2472,
,5204,2472,
,5202,1750,
,5201,1749,
,5203,1751,
,5202,1751,
,5203,1750,
,5204,1750,
,5202,1752,
,5204,1752,
,4835,1607,
,4834,1606,
,4836,1608,
,4835,1608,
,4836,1607,
,4837,1607,
,4835,1609,
,4837,1609,
,5330,1782,
,5329,1781,
,5331,1783,
,5330,1783,
,5331,1782,
,5332,1782,
,5330,1784,
,5332,1784,
,5938,791,
,5937,790,
,5939,792,
,5938,792,
,5939,791,
,5940,791,
,5938,793,
,5940,793,
,6113,728,
,6112,727,
,6114,729,
,6113,729,
,6114,728,
,6115,728,
,6113,730,
,6115,730,
,6225,584,
,6224,583,
,6226,585,
,6225,585,
,6226,584,
,6227,584,
,6225,586,
,6227,586,
,6513,1798,
,6512,1797,
,6514,1799,
,6513,1799,
,6514,1798,
,6515,1798,
,6513,1800,
,6515,1800,
,6353,2565,
,6352,2564,
,6354,2566,
,6353,2566,
,6354,2565,
,6355,2565,
,6353,2567,
,6355,2567,

