Reprojec_1,Reprojec_2,Reprojec_3
401.00000,523.00000,782.00000
396.00000,519.00000,787.00000
376.00000,518.00000,789.00000
369.00000,517.00000,784.00000
360.00000,517.00000,785.00000
357.00000,518.00000,790.00000
361.00000,512.00000,798.00000
361.00000,516.00000,789.00000
367.00000,508.00000,794.00000
367.00000,508.00000,794.00000
363.00000,502.00000,786.00000
363.00000,502.00000,786.00000
355.00000,514.00000,793.00000
360.00000,521.00000,788.00000
371.00000,513.00000,797.00000
371.00000,513.00000,797.00000
373.00000,519.00000,795.00000
365.00000,512.00000,808.00000
374.00000,515.00000,817.00000
377.00000,517.00000,813.00000
363.00000,513.00000,797.00000
363.00000,513.00000,797.00000
365.00000,504.00000,797.00000
370.00000,494.00000,798.00000
379.00000,491.00000,806.00000
375.00000,497.00000,802.00000
377.00000,475.00000,813.00000
377.00000,496.00000,796.00000
384.00000,499.00000,796.00000
478.00000,558.00000,798.00000
511.00000,565.00000,786.00000
436.00000,540.00000,790.00000
524.00000,614.00000,799.00000
434.00000,534.00000,791.00000
390.00000,504.00000,790.00000
383.00000,499.00000,780.00000
385.00000,501.00000,790.00000
389.00000,490.00000,785.00000
378.00000,486.00000,794.00000
391.00000,490.00000,787.00000
373.00000,501.00000,788.00000
537.00000,640.00000,815.00000
777.00000,1049.00000,1008.00000
599.00000,758.00000,821.00000
401.00000,523.00000,782.00000
401.00000,523.00000,782.00000
371.00000,476.00000,818.00000
362.00000,474.00000,812.00000
362.00000,474.00000,812.00000
349.00000,487.00000,816.00000
354.00000,480.00000,810.00000
352.00000,495.00000,818.00000
346.00000,490.00000,811.00000
354.00000,478.00000,803.00000
352.00000,477.00000,793.00000
350.00000,476.00000,804.00000
336.00000,477.00000,794.00000
341.00000,479.00000,799.00000
344.00000,472.00000,810.00000
326.00000,483.00000,797.00000
335.00000,468.00000,809.00000
339.00000,467.00000,800.00000
337.00000,468.00000,795.00000
337.00000,468.00000,795.00000
342.00000,469.00000,811.00000
358.00000,472.00000,824.00000
366.00000,485.00000,822.00000
366.00000,490.00000,822.00000
369.00000,485.00000,825.00000
366.00000,477.00000,815.00000
362.00000,470.00000,818.00000
361.00000,479.00000,813.00000
358.00000,465.00000,816.00000
361.00000,466.00000,801.00000
370.00000,479.00000,837.00000
367.00000,476.00000,817.00000
363.00000,479.00000,813.00000
371.00000,476.00000,818.00000
371.00000,476.00000,818.00000
228.00000,616.00000,790.00000
223.00000,640.00000,813.00000
216.00000,619.00000,787.00000
227.00000,634.00000,801.00000
212.00000,603.00000,788.00000
229.00000,620.00000,790.00000
228.00000,615.00000,787.00000
232.00000,605.00000,778.00000
235.00000,611.00000,794.00000
259.00000,616.00000,782.00000
278.00000,612.00000,782.00000
284.00000,598.00000,779.00000
298.00000,652.00000,822.00000
286.00000,640.00000,798.00000
274.00000,634.00000,789.00000
284.00000,598.00000,787.00000
275.00000,604.00000,766.00000
316.00000,644.00000,804.00000
283.00000,612.00000,792.00000
268.00000,633.00000,799.00000
267.00000,634.00000,807.00000
265.00000,630.00000,788.00000
239.00000,603.00000,777.00000
237.00000,609.00000,791.00000
233.00000,619.00000,785.00000
239.00000,646.00000,800.00000
238.00000,633.00000,792.00000
219.00000,601.00000,783.00000
211.00000,598.00000,771.00000
210.00000,599.00000,778.00000
211.00000,607.00000,779.00000
227.00000,602.00000,788.00000
239.00000,627.00000,801.00000
273.00000,679.00000,835.00000
273.00000,658.00000,825.00000
273.00000,660.00000,830.00000
281.00000,659.00000,826.00000
226.00000,624.00000,798.00000
226.00000,623.00000,802.00000
228.00000,619.00000,790.00000
220.00000,625.00000,798.00000
234.00000,626.00000,792.00000
232.00000,636.00000,810.00000
242.00000,631.00000,792.00000
239.00000,628.00000,791.00000
216.00000,618.00000,795.00000
216.00000,619.00000,792.00000
213.00000,607.00000,790.00000
210.00000,606.00000,760.00000
211.00000,597.00000,780.00000
210.00000,606.00000,787.00000
209.00000,603.00000,778.00000
220.00000,602.00000,794.00000
214.00000,605.00000,796.00000
220.00000,615.00000,778.00000
211.00000,605.00000,770.00000
228.00000,608.00000,778.00000
231.00000,622.00000,804.00000
232.00000,622.00000,800.00000
232.00000,629.00000,817.00000
223.00000,646.00000,806.00000
240.00000,636.00000,802.00000
232.00000,632.00000,799.00000
216.00000,619.00000,787.00000
228.00000,616.00000,790.00000
238.00000,619.00000,797.00000
217.00000,601.00000,786.00000
222.00000,616.00000,796.00000
243.00000,626.00000,788.00000
249.00000,630.00000,794.00000
254.00000,632.00000,786.00000
255.00000,617.00000,768.00000
245.00000,613.00000,776.00000
251.00000,606.00000,777.00000
244.00000,617.00000,791.00000
250.00000,611.00000,797.00000
250.00000,611.00000,797.00000
225.00000,604.00000,785.00000
216.00000,598.00000,782.00000
218.00000,613.00000,779.00000
213.00000,601.00000,766.00000
229.00000,623.00000,786.00000
238.00000,619.00000,797.00000
329.00000,401.00000,758.00000
287.00000,386.00000,735.00000
294.00000,403.00000,747.00000
294.00000,404.00000,737.00000
286.00000,409.00000,734.00000
288.00000,412.00000,733.00000
294.00000,406.00000,743.00000
293.00000,400.00000,721.00000
305.00000,403.00000,737.00000
311.00000,388.00000,747.00000
304.00000,401.00000,738.00000
310.00000,417.00000,736.00000
327.00000,406.00000,749.00000
327.00000,406.00000,749.00000
327.00000,406.00000,749.00000
329.00000,401.00000,758.00000
329.00000,401.00000,758.00000
