Reprojec_1,Reprojec_2,Reprojec_3
3101.00000,367.00000,673.00000
2897.00000,373.00000,709.00000
2809.00000,398.00000,685.00000
2346.00000,338.00000,613.00000
3335.00000,363.00000,718.00000
3199.00000,390.00000,689.00000
2997.00000,376.00000,712.00000
3101.00000,367.00000,673.00000
2971.00000,357.00000,678.00000
2692.00000,386.00000,694.00000
2972.00000,347.00000,674.00000
2594.00000,354.00000,639.00000
3073.00000,371.00000,694.00000
3066.00000,363.00000,751.00000
2872.00000,369.00000,733.00000
2971.00000,357.00000,678.00000
2923.00000,439.00000,692.00000
2720.00000,361.00000,665.00000
2909.00000,367.00000,687.00000
2475.00000,603.00000,791.00000
2532.00000,625.00000,820.00000
2068.00000,543.00000,777.00000
2882.00000,415.00000,729.00000
3561.00000,372.00000,682.00000
3137.00000,399.00000,732.00000
2601.00000,396.00000,661.00000
2889.00000,400.00000,687.00000
2669.00000,360.00000,672.00000
3476.00000,379.00000,671.00000
3092.00000,394.00000,709.00000
2636.00000,363.00000,695.00000
3264.00000,376.00000,719.00000
2923.00000,439.00000,692.00000
2936.00000,405.00000,732.00000
2921.00000,339.00000,672.00000
2829.00000,421.00000,675.00000
2633.00000,417.00000,718.00000
3258.00000,409.00000,768.00000
3430.00000,388.00000,771.00000
3132.00000,408.00000,756.00000
3197.00000,462.00000,791.00000
2794.00000,435.00000,748.00000
3811.00000,395.00000,769.00000
2720.00000,365.00000,659.00000
3029.00000,373.00000,721.00000
3184.00000,389.00000,811.00000
3216.00000,375.00000,756.00000
2368.00000,335.00000,635.00000
2599.00000,363.00000,642.00000
1656.00000,339.00000,562.00000
2360.00000,354.00000,642.00000
3215.00000,375.00000,721.00000
3088.00000,382.00000,693.00000
3543.00000,382.00000,721.00000
3474.00000,375.00000,764.00000
2970.00000,401.00000,693.00000
3108.00000,381.00000,735.00000
2936.00000,405.00000,732.00000
2858.00000,364.00000,687.00000
3181.00000,377.00000,727.00000
2658.00000,363.00000,674.00000
2895.00000,363.00000,686.00000
2587.00000,387.00000,679.00000
2519.00000,356.00000,657.00000
2903.00000,377.00000,711.00000
2756.00000,369.00000,687.00000
3181.00000,353.00000,677.00000
2923.00000,366.00000,700.00000
2883.00000,375.00000,701.00000
2757.00000,377.00000,678.00000
2803.00000,378.00000,688.00000
2967.00000,359.00000,666.00000
2809.00000,381.00000,697.00000
2966.00000,413.00000,774.00000
3004.00000,369.00000,716.00000
3135.00000,377.00000,750.00000
3002.00000,393.00000,703.00000
2958.00000,395.00000,701.00000
2837.00000,366.00000,682.00000
2705.00000,376.00000,657.00000
2999.00000,423.00000,776.00000
3115.00000,385.00000,686.00000
2670.00000,362.00000,648.00000
2538.00000,412.00000,688.00000
2690.00000,461.00000,740.00000
2554.00000,397.00000,733.00000
2677.00000,371.00000,680.00000
2900.00000,373.00000,688.00000
2828.00000,395.00000,716.00000
3199.00000,378.00000,738.00000
2858.00000,364.00000,687.00000
3137.00000,394.00000,739.00000
3327.00000,364.00000,704.00000
2754.00000,346.00000,671.00000
3256.00000,376.00000,747.00000
2816.00000,387.00000,653.00000
2776.00000,373.00000,700.00000
3151.00000,406.00000,736.00000
2863.00000,385.00000,685.00000
2724.00000,380.00000,674.00000
2657.00000,424.00000,735.00000
3604.00000,390.00000,721.00000
2534.00000,356.00000,643.00000
2223.00000,418.00000,692.00000
3271.00000,405.00000,735.00000
3244.00000,412.00000,740.00000
2819.00000,406.00000,725.00000
2767.00000,391.00000,711.00000
2865.00000,367.00000,696.00000
3098.00000,381.00000,722.00000
2640.00000,378.00000,705.00000
2066.00000,350.00000,618.00000
2692.00000,378.00000,677.00000
3431.00000,353.00000,708.00000
3137.00000,394.00000,739.00000
